ej1/adder.vcd
$date
	Sat May 15 11:53:47 2021
$end
$version
	Icarus Verilog
$end
$timescale
	1ps
$end
$scope module top $end
$var wire 1 ! \$1 $end
$var wire 1 " \$11 $end
$var wire 1 # \$13 $end
$var wire 1 $ \$19 $end
$var wire 1 % \$21 $end
$var wire 1 & \$23 $end
$var wire 1 ' \$25 $end
$var wire 1 ( \$27 $end
$var wire 1 ) \$29 $end
$var wire 1 * \$3 $end
$var wire 1 + \$5 $end
$var wire 1 , \$7 $end
$var wire 1 - \$9 $end
$var wire 8 . a__data [7:0] $end
$var wire 1 / a__ready $end
$var wire 1 0 a__valid $end
$var wire 8 1 b__data [7:0] $end
$var wire 1 2 b__ready $end
$var wire 1 3 b__valid $end
$var wire 1 4 clk $end
$var wire 1 5 r__ready $end
$var wire 1 6 rst $end
$var wire 9 7 \$16 [8:0] $end
$var wire 16 8 \$15 [15:0] $end
$var reg 1 9 initial $end
$var reg 16 : r__data [15:0] $end
$var reg 16 ; \r__data$next [15:0] $end
$var reg 1 < r__valid $end
$var reg 1 = \r__valid$next $end
$upscope $end
$enddefinitions $end
#0
$dumpvars
1=
0<
b11011011 ;
b0 :
09
b11011011 8
b11011011 7
06
15
14
13
12
b1101001 1
10
1/
b1110010 .
1-
1,
1+
1*
1)
0(
1'
1&
0%
1$
1#
1"
0!
$end
#1000
04
#2000
b11011 ;
b100101 .
b11011 8
b11011 7
b11110110 1
1=
1(
0'
1%
0$
1!
1<
b11011011 :
14
#3000
04
#4000
b111 ;
b11001 .
b111 8
b111 7
b11101110 1
b11011 :
14
#5000
04
#6000
b1111111111100100 ;
b10100110 .
b1111111111100100 8
b111100100 7
b111110 1
b111 :
14
#7000
04
#8000
b11 ;
b100001 .
b11 8
b11 7
b11100010 1
b1111111111100100 :
14
#9000
04
#10000
b1111111110111111 ;
b11010001 .
b1111111110111111 8
b110111111 7
b11101110 1
b11 :
14
#11000
04
#12000
b1111111101011010 ;
b10000011 .
b1111111101011010 8
b101011010 7
b11010111 1
b1111111110111111 :
14
#13000
04
#14000
b1111111110100101 ;
b11001001 .
b1111111110100101 8
b110100101 7
b11011100 1
b1111111101011010 :
14
#15000
04
#16000
b1111111110111001 ;
b110111 .
b1111111110111001 8
b110111001 7
b10000010 1
b1111111110100101 :
14
#17000
04
#18000
b1111111110110100 ;
b11011010 .
b1111111110110100 8
b110110100 7
b11011010 1
b1111111110111001 :
14
#19000
04
#20000
b1011100 ;
b10100 .
b1011100 8
b1011100 7
b1001000 1
b1111111110110100 :
14
#21000
04
#22000
b1111111111111010 ;
b1100110 .
b1111111111111010 8
b111111010 7
b10010100 1
b1011100 :
14
#23000
04
#24000
b1111000 ;
b1110001 .
b1111000 8
b1111000 7
b111 1
b1111111111111010 :
14
#25000
04
#26000
b1011000 ;
b1111101 .
b1011000 8
b1011000 7
b11011011 1
b1111000 :
14
#27000
04
#28000
b1111111111101111 ;
b1000110 .
b1111111111101111 8
b111101111 7
b10101001 1
b1011000 :
14
#29000
04
#30000
b1111111101110010 ;
b10011011 .
b1111111101110010 8
b101110010 7
b11010111 1
b1111111111101111 :
14
#31000
04
#32000
b100010 ;
b111011 .
b100010 8
b100010 7
b11100111 1
b1111111101110010 :
14
#33000
04
#34000
b1010000 ;
b11001 .
b1010000 8
b1010000 7
b110111 1
b100010 :
14
#35000
04
#36000
b1111111110000101 ;
b10101010 .
b1111111110000101 8
b110000101 7
b11011011 1
b1010000 :
14
#37000
04
#38000
b1111111111001101 ;
b10011010 .
b1111111111001101 8
b111001101 7
b110011 1
b1111111110000101 :
14
#39000
04
#40000
b1111111111001010 ;
b101111 .
b1111111111001010 8
b111001010 7
b10011011 1
b1111111111001101 :
14
#41000
04
#42000
b1111111110101010 ;
b11110110 .
b1111111110101010 8
b110101010 7
b10110100 1
b1111111111001010 :
14
#43000
04
#44000
b10010011 ;
b1001001 .
b10010011 8
b10010011 7
b1001010 1
b1111111110101010 :
14
#45000
04
#46000
b1111111101001011 ;
b10000101 .
b1111111101001011 8
b101001011 7
b11000110 1
b10010011 :
14
#47000
04
#48000
b1111111100110000 ;
b10100100 .
b1111111100110000 8
b100110000 7
b10001100 1
b1111111101001011 :
14
#49000
04
#50000
b1111111110000101 ;
b10011010 .
b1111111110000101 8
b110000101 7
b11101011 1
b1111111100110000 :
14
#51000
04
#52000
b1111111111011110 ;
b100101 .
b1111111111011110 8
b111011110 7
b10111001 1
b1111111110000101 :
14
#53000
04
#54000
b1111111101110011 ;
b11101101 .
b1111111101110011 8
b101110011 7
b10000110 1
b1111111111011110 :
14
#55000
04
#56000
b1111111110100100 ;
b11110001 .
b1111111110100100 8
b110100100 7
b10110011 1
b1111111101110011 :
14
#57000
04
#58000
b10000000 ;
b101 .
b10000000 8
b10000000 7
b1111011 1
b1111111110100100 :
14
#59000
04
#60000
b10000101 ;
b1000010 .
b10000101 8
b10000101 7
b1000011 1
b10000000 :
14
#61000
04
#62000
b1111111111100110 ;
b11111101 .
b1111111111100110 8
b111100110 7
b11101001 1
b10000101 :
14
#63000
04
#64000
b1111111111000100 ;
b1000001 .
b1111111111000100 8
b111000100 7
b10000011 1
b1111111111100110 :
14
#65000
04
#66000
b1011110 ;
b1111 .
b1011110 8
b1011110 7
b1001111 1
b1111111111000100 :
14
#67000
04
#68000
b1111111100110010 ;
b10100001 .
b1111111100110010 8
b100110010 7
b10010001 1
b1011110 :
14
#69000
04
#70000
b1011011 ;
b11100 .
b1011011 8
b1011011 7
b111111 1
b1111111100110010 :
14
#71000
04
#72000
b1111111111101110 ;
b10000001 .
b1111111111101110 8
b111101110 7
b1101101 1
b1011011 :
14
#73000
04
#74000
b1111111111001100 ;
b10000101 .
b1111111111001100 8
b111001100 7
b1000111 1
b1111111111101110 :
14
#75000
04
#76000
b1111111111110011 ;
b11101011 .
b1111111111110011 8
b111110011 7
b1000 1
b1111111111001100 :
14
#77000
04
#78000
b11110010 ;
b1111110 .
b11110010 8
b11110010 7
b1110100 1
b1111111111110011 :
14
#79000
04
#80000
b1101 ;
b11100100 .
b1101 8
b1101 7
b101001 1
b11110010 :
14
#81000
04
#82000
b1001000 ;
b101100 .
b1001000 8
b1001000 7
b11100 1
b1101 :
14
#83000
04
#84000
b1111111111111011 ;
b11001011 .
b1111111111111011 8
b111111011 7
b110000 1
b1001000 :
14
#85000
04
#86000
b1111111101100010 ;
b10110110 .
b1111111101100010 8
b101100010 7
b10101100 1
b1111111111111011 :
14
#87000
04
#88000
b1111111111110010 ;
b1001 .
b1111111111110010 8
b111110010 7
b11101001 1
b1111111101100010 :
14
#89000
04
#90000
b111101 ;
b1101 .
b111101 8
b111101 7
b110000 1
b1111111111110010 :
14
#91000
04
#92000
b1111111111100110 ;
b100110 .
b1111111111100110 8
b111100110 7
b11000000 1
b111101 :
14
#93000
04
#94000
b10 ;
b101001 .
b10 8
b10 7
b11011001 1
b1111111111100110 :
14
#95000
04
#96000
b1000 ;
b10010100 .
b1000 8
b1000 7
b1110100 1
b10 :
14
#97000
04
#98000
b1111111111111011 ;
b1010101 .
b1111111111111011 8
b111111011 7
b10100110 1
b1000 :
14
#99000
04
#100000
b100101 ;
b1000000 .
b100101 8
b100101 7
b11100101 1
b1111111111111011 :
14
#101000
04
#102000
b101000 ;
b10111011 .
b101000 8
b101000 7
b1101101 1
b100101 :
14
#103000
04
#104000
b1111111110110111 ;
b10000110 .
b1111111110110111 8
b110110111 7
b110001 1
b101000 :
14
#105000
04
#106000
b10001111 ;
b1011100 .
b10001111 8
b10001111 7
b110011 1
b1111111110110111 :
14
#107000
04
#108000
b1111111110000000 ;
b11111110 .
b1111111110000000 8
b110000000 7
b10000010 1
b10001111 :
14
#109000
04
#110000
b100110 ;
b100000 .
b100110 8
b100110 7
b110 1
b1111111110000000 :
14
#111000
04
#112000
b111100 ;
b11100110 .
b111100 8
b111100 7
b1010110 1
b100110 :
14
#113000
04
#114000
b1111111111011110 ;
b11011011 .
b1111111111011110 8
b111011110 7
b11 1
b111100 :
14
#115000
04
#116000
b1111111111100110 ;
b10100110 .
b1111111111100110 8
b111100110 7
b1000000 1
b1111111111011110 :
14
#117000
04
#118000
b10111000 ;
b1010110 .
b10111000 8
b10111000 7
b1100010 1
b1111111111100110 :
14
#119000
04
#120000
b10100 ;
b101110 .
b10100 8
b10100 7
b11100110 1
b10111000 :
14
#121000
04
#122000
b10111 ;
b11101001 .
b10111 8
b10111 7
b101110 1
b10100 :
14
#123000
04
#124000
b1111111101100000 ;
b10101100 .
b1111111101100000 8
b101100000 7
b10110100 1
b10111 :
14
#125000
04
#126000
b1111111101101010 ;
b10101011 .
b1111111101101010 8
b101101010 7
b10111111 1
b1111111101100000 :
14
#127000
04
#128000
b10010001 ;
b1101110 .
b10010001 8
b10010001 7
b100011 1
b1111111101101010 :
14
#129000
04
#130000
b100111 ;
b1001000 .
b100111 8
b100111 7
b11011111 1
b10010001 :
14
#131000
04
#132000
b1101101 ;
b1100100 .
b1101101 8
b1101101 7
b1001 1
b100111 :
14
#133000
04
#134000
b1111111111101011 ;
b11001101 .
b1111111111101011 8
b111101011 7
b11110 1
b1101101 :
14
#135000
04
#136000
b1111111101001110 ;
b10111100 .
b1111111101001110 8
b101001110 7
b10010010 1
b1111111111101011 :
14
#137000
04
#138000
b1111111110010101 ;
b10000110 .
b1111111110010101 8
b110010101 7
b1111 1
b1111111101001110 :
14
#139000
04
#140000
b10101010 ;
b101011 .
b10101010 8
b10101010 7
b1111111 1
b1111111110010101 :
14
#141000
04
#142000
b1111101 ;
b1110001 .
b1111101 8
b1111101 7
b1100 1
b10101010 :
14
#143000
04
#144000
b1111111101110001 ;
b11010111 .
b1111111101110001 8
b101110001 7
b10011010 1
b1111101 :
14
#145000
04
#146000
b1111111111110000 ;
b11011010 .
b1111111111110000 8
b111110000 7
b10110 1
b1111111101110001 :
14
#147000
04
#148000
b1111111110000111 ;
b11011110 .
b1111111110000111 8
b110000111 7
b10101001 1
b1111111111110000 :
14
#149000
04
#150000
b1011101 ;
b1000 .
b1011101 8
b1011101 7
b1010101 1
b1111111110000111 :
14
#151000
04
#152000
b1111 ;
b10010110 .
b1111 8
b1111 7
b1111001 1
b1011101 :
14
#153000
04
#154000
b1111111110110010 ;
b11001011 .
b1111111110110010 8
b110110010 7
b11100111 1
b1111 :
14
#155000
04
#156000
b110011 ;
b111010 .
b110011 8
b110011 7
b11111001 1
b1111111110110010 :
14
#157000
04
#158000
b11100 ;
b10101100 .
b11100 8
b11100 7
b1110000 1
b110011 :
14
#159000
04
#160000
b1111111111010011 ;
b11000111 .
b1111111111010011 8
b111010011 7
b1100 1
b11100 :
14
#161000
04
#162000
b1111111101110100 ;
b11010010 .
b1111111101110100 8
b101110100 7
b10100010 1
b1111111111010011 :
14
#163000
04
#164000
b110001 ;
b100010 .
b110001 8
b110001 7
b1111 1
b1111111101110100 :
14
#165000
04
#166000
b1111111111100100 ;
b100 .
b1111111111100100 8
b111100100 7
b11100000 1
b110001 :
14
#167000
04
#168000
b1111111111111110 ;
b11011011 .
b1111111111111110 8
b111111110 7
b100011 1
b1111111111100100 :
14
#169000
04
#170000
b1111111110000100 ;
b10011011 .
b1111111110000100 8
b110000100 7
b11101001 1
b1111111111111110 :
14
#171000
04
#172000
b1111111110000111 ;
b11011101 .
b1111111110000111 8
b110000111 7
b10101010 1
b1111111110000100 :
14
#173000
04
#174000
b11000 ;
b11101101 .
b11000 8
b11000 7
b101011 1
b1111111110000111 :
14
#175000
04
#176000
b1001110 ;
b1100 .
b1001110 8
b1001110 7
b1000010 1
b11000 :
14
#177000
04
#178000
b1111111110110100 ;
b10011110 .
b1111111110110100 8
b110110100 7
b10110 1
b1001110 :
14
#179000
04
#180000
b1111111110011101 ;
b11001110 .
b1111111110011101 8
b110011101 7
b11001111 1
b1111111110110100 :
14
#181000
04
#182000
b1111111111110001 ;
b10101001 .
b1111111111110001 8
b111110001 7
b1001000 1
b1111111110011101 :
14
#183000
04
#184000
b1111111110100100 ;
b10101011 .
b1111111110100100 8
b110100100 7
b11111001 1
b1111111111110001 :
14
#185000
04
#186000
b1111111111110111 ;
b11111011 .
b1111111111110111 8
b111110111 7
b11111100 1
b1111111110100100 :
14
#187000
04
#188000
b1111111111011010 ;
b10001010 .
b1111111111011010 8
b111011010 7
b1010000 1
b1111111111110111 :
14
#189000
04
#190000
b1111111111001100 ;
b10001011 .
b1111111111001100 8
b111001100 7
b1000001 1
b1111111111011010 :
14
#191000
04
#192000
b1111111101001010 ;
b10111011 .
b1111111101001010 8
b101001010 7
b10001111 1
b1111111111001100 :
14
#193000
04
#194000
b1111111111011011 ;
b10011100 .
b1111111111011011 8
b111011011 7
b111111 1
b1111111101001010 :
14
#195000
04
#196000
b110 ;
b1011010 .
b110 8
b110 7
b10101100 1
b1111111111011011 :
14
#197000
04
#198000
b11000000 ;
b1001111 .
b11000000 8
b11000000 7
b1110001 1
b110 :
14
#199000
04
#200000
0=
0#
0,
0-
0*
0"
0+
00
03
b11000000 :
14
#201000
04
#202000
0(
1'
0%
1$
0!
0<
14
